[
    {
        "key": "f12",
        "command": "-editor.action.revealDefinition",
        "when": "editorHasDefinitionProvider && editorTextFocus && !isInEmbeddedEditor"
    },
    {
        "key": "f5",
        "command": "workbench.action.tasks.runTask",
        "args": "build_this"
    },   
    {
        "key": "f4",
        "command": "workbench.action.tasks.runTask",
        "args": "debug_this"
    },   
    {
        "key": "f6",
        "command": "workbench.action.tasks.runTask",
        "args": "build_run_this"
    },
    {
        "key": "f7",
        "command": "workbench.action.tasks.runTask",
        "args": "runUt"
    },
    {
        "key": "f10",
        "command": "-extension.node-debug.startWithStopOnEntry",
        "when": "!inDebugMode && debugConfigurationType == 'node'"
    },
    {
        "key": "f10",
        "command": "-workbench.action.debug.stepOver",
        "when": "debugState == 'stopped'"
    },
    {
        "key": "f12",
        "command": "editor.action.revealDeclaration"
    },
    {
        "key": "ctrl+alt+b",
        "command": "workbench.action.navigateBack"
    },
    {
        "key": "ctrl+alt+n",
        "command": "workbench.action.navigateForward"
    },
    {
        "key": "ctrl+d",
        "command": "editor.action.copyLinesDownAction",
        "when": "editorTextFocus"
    },
    {
        "key": "ctrl+k z",
        "command": "multiCommand.beZen"
    },
    {
        "key": "ctrl+k z",
        "command": "-workbench.action.toggleZenMode"
    },
    {
        "key": "ctrl+shift+s",
        "command": "workbench.action.files.saveAll"
    },
    {
        "key": "ctrl+k f1",
        "command": "workbench.files.action.showActiveFileInExplorer"
    },
    {
        "key": "ctrl+k unknown",
        "command": "editor.foldAll",
        "when": "editorTextFocus && foldingEnabled"
    },
    {
        "key": "ctrl+k ctrl+0",
        "command": "-editor.foldAll",
        "when": "editorTextFocus && foldingEnabled"
    },
    {
        "key": "ctrl+k ctrl+/",
        "command": "-editor.foldAllBlockComments",
        "when": "editorTextFocus && foldingEnabled"
    },
    {
        "key": "ctrl+k unknown",
        "command": "editor.fold",
        "when": "editorTextFocus && foldingEnabled"
    },
    {
        "key": "ctrl+shift+[",
        "command": "-editor.fold",
        "when": "editorTextFocus && foldingEnabled"
    },
    {
        "key": "ctrl+k ctrl+8",
        "command": "-editor.foldAllMarkerRegions",
        "when": "editorTextFocus && foldingEnabled"
    },
    {
        "key": "ctrl+k f",
        "command": "editor.foldAll"
    },
    {
        "key": "ctrl+k f",
        "command": "-workbench.action.closeFolder"
    },
    {
        "key": "ctrl+q",
        "command": "-workbench.action.quit"
    },
    {
        "key": "ctrl+k ctrl+shift+7",
        "command": "editor.foldLevel1",
        "when": "editorTextFocus && foldingEnabled"
    },
    {
        "key": "ctrl+k ctrl+1",
        "command": "-editor.foldLevel1",
        "when": "editorTextFocus && foldingEnabled"
    },
    {
        "key": "ctrl+k ctrl+unknown",
        "command": "editor.foldRecursively",
        "when": "editorTextFocus && foldingEnabled"
    },
    {
        "key": "ctrl+k ctrl+[",
        "command": "-editor.foldRecursively",
        "when": "editorTextFocus && foldingEnabled"
    },
    {
        "key": "ctrl+k ctrl+unknown",
        "command": "editor.unfoldRecursively",
        "when": "editorTextFocus && foldingEnabled"
    },
    {
        "key": "ctrl+k ctrl+]",
        "command": "-editor.unfoldRecursively",
        "when": "editorTextFocus && foldingEnabled"
    },
    {
        "key": "ctrl+tab",
        "command": "workbench.action.terminal.focusNext",
        "when": "terminalFocus"
    },
    {
        "key": "ctrl+'",
        "command": "terminal.focus",
        "when": "editorFocus"
    },  
    {
        "key": "ctrl+'",
        "command": "workbench.action.focusActiveEditorGroup",
        "when": "terminalFocus"
    },
    {
        "key": "ctrl+space",
        "command": "workbench.action.toggleMaximizedPanel",
        "when": "terminalFocus"
    },
    {
        "key": "ctrl+tab",
        "command": "-workbench.action.quickOpenNavigateNextInEditorPicker",
        "when": "inEditorsPicker && inQuickOpen"
    },
    {
        "key": "ctrl+tab",
        "command": "-workbench.action.quickOpenPreviousRecentlyUsedEditorInGroup"
    },
    {
        "key": "ctrl+shift+tab",
        "command": "-workbench.action.quickOpenLeastRecentlyUsedEditorInGroup"
    },
    {
        "key": "ctrl+shift+tab",
        "command": "-workbench.action.quickOpenNavigatePreviousInEditorPicker",
        "when": "inEditorsPicker && inQuickOpen"
    },
    {
        "key": "ctrl+shift+/",
        "command": "editor.action.commentLine",
        "when": "editorTextFocus && !editorReadonly"
    },
    {
        "key": "ctrl+/",
        "command": "-editor.action.commentLine",
        "when": "editorTextFocus && !editorReadonly"
    }
]